[
  {
    "code": "in:assam:baksa",
    "name": "बक्सा"
  },
  {
    "code": "in:assam:barpeta",
    "name": "बारपेटा"
  },
  {
    "code": "in:assam:biswanath",
    "name": "बिश्वनाथ"
  },
  {
    "code": "in:assam:bongaigaon",
    "name": "बोंगईगांव"
  },
  {
    "code": "in:assam:cachar",
    "name": "कछार"
  },
  {
    "code": "in:assam:charaideo",
    "name": "चऱाडीयो"
  },
  {
    "code": "in:assam:chirang",
    "name": "चिरांग"
  },
  {
    "code": "in:assam:darrang",
    "name": "दरांग"
  },
  {
    "code": "in:assam:dhemaji",
    "name": "धेमाजी"
  },
  {
    "code": "in:assam:dhubri",
    "name": "धुबरी"
  },
  {
    "code": "in:assam:dibrugarh",
    "name": "डिब्रूगढ़"
  },
  {
    "code": "in:assam:dima-hasao",
    "name": "दीमा हसाओ"
  },
  {
    "code": "in:assam:goalpara",
    "name": "गोलपाड़ा"
  },
  {
    "code": "in:assam:golaghat",
    "name": "गोलाघाट"
  },
  {
    "code": "in:assam:hailakandi",
    "name": "हैलाकांडी"
  },
  {
    "code": "in:assam:hojai",
    "name": "होजाई"
  },
  {
    "code": "in:assam:jorhat",
    "name": "जोरहाट"
  },
  {
    "code": "in:assam:kamrup",
    "name": "कामरूप"
  },
  {
    "code": "in:assam:kamrup-metro",
    "name": "कामरूप मेट्रो"
  },
  {
    "code": "in:assam:karbi-anglong",
    "name": "करबी आंगलोंग"
  },
  {
    "code": "in:assam:karimganj-district",
    "name": "करीमगंज जिला"
  },
  {
    "code": "in:assam:kokrajhar",
    "name": "कोकराझार"
  },
  {
    "code": "in:assam:lakhimpur-district",
    "name": "लखीमपुर जिला"
  },
  {
    "code": "in:assam:majuli",
    "name": "जुलाई"
  },
  {
    "code": "in:assam:marigaon",
    "name": "मोरीगांव"
  },
  {
    "code": "in:assam:nagaon-district",
    "name": "नागांव जिला"
  },
  {
    "code": "in:assam:nalbari",
    "name": "नलबाड़ी"
  },
  {
    "code": "in:assam:sivasagar",
    "name": "शिवसागर"
  },
  {
    "code": "in:assam:sonitpur",
    "name": "सोनितपुर"
  },
  {
    "code": "in:assam:south-salmara-mancachar",
    "name": "दक्षिण सलमार मणचाचर"
  },
  {
    "code": "in:assam:tinsukia",
    "name": "तिनसुकिया"
  },
  {
    "code": "in:assam:udalguri",
    "name": "उदलगुड़ी"
  },
  {
    "code": "in:assam:west-karbi-anglong",
    "name": "पश्चिम करबी आंगलोंग"
  }
]
