[
  {
    "code": "in:delhi:central",
    "name": "केंद्रीय"
  },
  {
    "code": "in:delhi:east",
    "name": "पूर्व"
  },
  {
    "code": "in:delhi:new-delhi",
    "name": "नई दिल्ली"
  },
  {
    "code": "in:delhi:north",
    "name": "उत्तर"
  },
  {
    "code": "in:delhi:north-east",
    "name": "उत्तर-पूर्व"
  },
  {
    "code": "in:delhi:north-west",
    "name": "उत्तर पश्चिम"
  },
  {
    "code": "in:delhi:shahdara",
    "name": "शाहदरा"
  },
  {
    "code": "in:delhi:south",
    "name": "दक्षिण"
  },
  {
    "code": "in:delhi:south-east",
    "name": "दक्षिण पूर्व"
  },
  {
    "code": "in:delhi:south-west",
    "name": "दक्षिण पश्चिम"
  },
  {
    "code": "in:delhi:west",
    "name": "पश्चिम"
  }
]
