[
  {
    "code": "in:jammu-and-kashmir:anantnag",
    "name": "अनंतनाग"
  },
  {
    "code": "in:jammu-and-kashmir:badgam",
    "name": "बड़गाम"
  },
  {
    "code": "in:jammu-and-kashmir:bandipora",
    "name": "बांदीपुरा"
  },
  {
    "code": "in:jammu-and-kashmir:baramulla",
    "name": "बारामूला"
  },
  {
    "code": "in:jammu-and-kashmir:doda",
    "name": "डोडा"
  },
  {
    "code": "in:jammu-and-kashmir:ganderbal",
    "name": "गांदरबल"
  },
  {
    "code": "in:jammu-and-kashmir:jammu-district",
    "name": "जम्मू जिला"
  },
  {
    "code": "in:jammu-and-kashmir:kargil",
    "name": "कारगिल"
  },
  {
    "code": "in:jammu-and-kashmir:kathua",
    "name": "कठुआ"
  },
  {
    "code": "in:jammu-and-kashmir:kishtwar",
    "name": "किश्तवाड़"
  },
  {
    "code": "in:jammu-and-kashmir:kulgam",
    "name": "कुलगाम"
  },
  {
    "code": "in:jammu-and-kashmir:kupwara",
    "name": "कुपवाड़ा"
  },
  {
    "code": "in:jammu-and-kashmir:leh-ladakh",
    "name": "लेह लद्दाख"
  },
  {
    "code": "in:jammu-and-kashmir:poonch",
    "name": "पूंछ"
  },
  {
    "code": "in:jammu-and-kashmir:pulwama",
    "name": "पुलवामा"
  },
  {
    "code": "in:jammu-and-kashmir:rajauri",
    "name": "राजौरी"
  },
  {
    "code": "in:jammu-and-kashmir:ramban",
    "name": "रामबन"
  },
  {
    "code": "in:jammu-and-kashmir:reasi",
    "name": "रीस"
  },
  {
    "code": "in:jammu-and-kashmir:samba",
    "name": "साम्बा"
  },
  {
    "code": "in:jammu-and-kashmir:shopian",
    "name": "शोपियां"
  },
  {
    "code": "in:jammu-and-kashmir:srinagar",
    "name": "श्रीनगर"
  },
  {
    "code": "in:jammu-and-kashmir:udhampur",
    "name": "उधमपुर"
  }
]
