[
  {
    "code": "in:telangana:adilabad",
    "name": "आदिलाबाद"
  },
  {
    "code": "in:telangana:bhadradri-kothagudem",
    "name": "भद्रद्री कोथगुडेम"
  },
  {
    "code": "in:telangana:bhupalapally",
    "name": "भुपलापली"
  },
  {
    "code": "in:telangana:hyderabad",
    "name": "हैदराबाद"
  },
  {
    "code": "in:telangana:jagitial",
    "name": "जगी टियल"
  },
  {
    "code": "in:telangana:jangoan",
    "name": "जनगांव"
  },
  {
    "code": "in:telangana:jogulamba-gadwal",
    "name": "जोगुलम्बा गडवाल"
  },
  {
    "code": "in:telangana:kamareddy",
    "name": "काम रेड्डी"
  },
  {
    "code": "in:telangana:karimngar-district",
    "name": "करीमंगार जिला"
  },
  {
    "code": "in:telangana:khammam",
    "name": "खम्मम"
  },
  {
    "code": "in:telangana:kumuram-bheem-asifabad",
    "name": "कुमुराम भीम असिफाबाद"
  },
  {
    "code": "in:telangana:mahabubabad",
    "name": "महबुबाबाद"
  },
  {
    "code": "in:telangana:mahbubnagar-district",
    "name": "महबूबनगर जिला"
  },
  {
    "code": "in:telangana:mancherial",
    "name": "मैनचेरीअल"
  },
  {
    "code": "in:telangana:medak",
    "name": "मेडक"
  },
  {
    "code": "in:telangana:medchal-malkajgiri",
    "name": "मेडचल मलकजगिरी"
  },
  {
    "code": "in:telangana:nagarkurnool",
    "name": "नगरकुरनूल"
  },
  {
    "code": "in:telangana:nalgonda",
    "name": "नलगोंडा"
  },
  {
    "code": "in:telangana:nirmal",
    "name": "निर्मल"
  },
  {
    "code": "in:telangana:nizamabad",
    "name": "निजामाबाद"
  },
  {
    "code": "in:telangana:peddapalli",
    "name": "पेद्दापल्ली"
  },
  {
    "code": "in:telangana:rajanna-sircilla",
    "name": "राजन्ना सिरसिला"
  },
  {
    "code": "in:telangana:ranga-reddy",
    "name": "राइड रेड्डी"
  },
  {
    "code": "in:telangana:sangareddy",
    "name": "संगा रेड्डी"
  },
  {
    "code": "in:telangana:siddipet",
    "name": "सिद्दीपेट"
  },
  {
    "code": "in:telangana:suryapet",
    "name": "सूर्यापेट"
  },
  {
    "code": "in:telangana:vikarabad",
    "name": "विकाराबाद"
  },
  {
    "code": "in:telangana:wanaparthy",
    "name": "वानापाथी"
  },
  {
    "code": "in:telangana:warangal-rural",
    "name": "वारंगल ग्रामीण"
  },
  {
    "code": "in:telangana:warangal-urban",
    "name": "वारंगल शहरी"
  },
  {
    "code": "in:telangana:yadadri-bhuvanagiri",
    "name": "याददा भुवनागिरी"
  }
]
