[
  {
    "code": "in:uttarakhand:almora-district",
    "name": "अल्मोड़ा जिला"
  },
  {
    "code": "in:uttarakhand:bageshwar",
    "name": "बागेश्वर"
  },
  {
    "code": "in:uttarakhand:chamoli",
    "name": "चमोली"
  },
  {
    "code": "in:uttarakhand:champawat",
    "name": "चम्पावत"
  },
  {
    "code": "in:uttarakhand:dehradun",
    "name": "देहरादून"
  },
  {
    "code": "in:uttarakhand:haridwar",
    "name": "हरिद्वार"
  },
  {
    "code": "in:uttarakhand:nainital",
    "name": "नैनीताल"
  },
  {
    "code": "in:uttarakhand:pauri-garhwal",
    "name": "पौरी गढ़वाल"
  },
  {
    "code": "in:uttarakhand:pithoragarh",
    "name": "पिथोरागढ़"
  },
  {
    "code": "in:uttarakhand:rudra-prayag",
    "name": "रुद्रप्रयाग"
  },
  {
    "code": "in:uttarakhand:tehri-garhwal",
    "name": "तेहरी गढ़वाल"
  },
  {
    "code": "in:uttarakhand:udam-singh-nagar",
    "name": "उदम सिंह नगर"
  },
  {
    "code": "in:uttarakhand:uttar-kashi",
    "name": "उत्तर काशी"
  }
]
