[
  {
    "code": "in:west-bengal:24-paraganas-north",
    "name": "24 परागणस उत्तर"
  },
  {
    "code": "in:west-bengal:24-paraganas-south",
    "name": "24 परागणस दक्षिण"
  },
  {
    "code": "in:west-bengal:alipurduar",
    "name": "अलीपुरद्वार"
  },
  {
    "code": "in:west-bengal:bankura",
    "name": "बांकुड़ा"
  },
  {
    "code": "in:west-bengal:birbhum",
    "name": "बीरभूम"
  },
  {
    "code": "in:west-bengal:coochbehar",
    "name": "कूचबिहार"
  },
  {
    "code": "in:west-bengal:dakshin-dinajpur-district",
    "name": "दक्षिण दिनाजपुर जिला"
  },
  {
    "code": "in:west-bengal:darjeeling",
    "name": "दार्जिलिंग"
  },
  {
    "code": "in:west-bengal:dinajpur-uttar",
    "name": "दीनाजपुर उत्तर"
  },
  {
    "code": "in:west-bengal:hooghly",
    "name": "हुगली"
  },
  {
    "code": "in:west-bengal:howrah",
    "name": "हावड़ा"
  },
  {
    "code": "in:west-bengal:jalpaiguri",
    "name": "जलपाईगुड़ी"
  },
  {
    "code": "in:west-bengal:jhargram",
    "name": "झारग्राम"
  },
  {
    "code": "in:west-bengal:kalimpong",
    "name": "कलिम्पोंग"
  },
  {
    "code": "in:west-bengal:kolkata",
    "name": "कोलकाता"
  },
  {
    "code": "in:west-bengal:maldah",
    "name": "मालदा"
  },
  {
    "code": "in:west-bengal:medinipur-east",
    "name": "मेदिनीपुर पूर्व"
  },
  {
    "code": "in:west-bengal:medinipur-west",
    "name": "मेदिनीपुर पश्चिम"
  },
  {
    "code": "in:west-bengal:murshidabad-district",
    "name": "मुर्शिदाबाद जिला"
  },
  {
    "code": "in:west-bengal:nadia",
    "name": "नादिया"
  },
  {
    "code": "in:west-bengal:paschim-bardhaman",
    "name": "पासिम बर्धमान"
  },
  {
    "code": "in:west-bengal:purba-bardhaman",
    "name": "पूरब बर्धमान"
  },
  {
    "code": "in:west-bengal:purulia",
    "name": "पुरुलिया"
  }
]
