[
  {
    "code": "in:kerala:alleppey",
    "name": "Alleppey"
  },
  {
    "code": "in:kerala:ernakulam",
    "name": "Ernakulam"
  },
  {
    "code": "in:kerala:idukki-district",
    "name": "Idukki district"
  },
  {
    "code": "in:kerala:kannur",
    "name": "Kannur"
  },
  {
    "code": "in:kerala:kasaragod",
    "name": "Kasaragod"
  },
  {
    "code": "in:kerala:kollam",
    "name": "Kollam"
  },
  {
    "code": "in:kerala:kottayam",
    "name": "Kottayam"
  },
  {
    "code": "in:kerala:kozhikode",
    "name": "Kozhikode"
  },
  {
    "code": "in:kerala:malappuram",
    "name": "Malappuram"
  },
  {
    "code": "in:kerala:palakkad",
    "name": "Palakkad"
  },
  {
    "code": "in:kerala:pathanamthitta",
    "name": "Pathanamthitta"
  },
  {
    "code": "in:kerala:thiruvananthapuram",
    "name": "Thiruvananthapuram"
  },
  {
    "code": "in:kerala:thrissur",
    "name": "Thrissur"
  },
  {
    "code": "in:kerala:wayanad",
    "name": "Wayanad"
  }
]
