[
  {
    "code": "in:uttar-pradesh:agra",
    "name": "Agra"
  },
  {
    "code": "in:uttar-pradesh:aligarh",
    "name": "Aligarh"
  },
  {
    "code": "in:uttar-pradesh:allahabad",
    "name": "Allahabad"
  },
  {
    "code": "in:uttar-pradesh:ambedkar-nagar",
    "name": "Ambedkar Nagar"
  },
  {
    "code": "in:uttar-pradesh:amethi",
    "name": "Amethi"
  },
  {
    "code": "in:uttar-pradesh:amroha",
    "name": "Amroha"
  },
  {
    "code": "in:uttar-pradesh:auraiya",
    "name": "Auraiya"
  },
  {
    "code": "in:uttar-pradesh:azamgarh",
    "name": "Azamgarh"
  },
  {
    "code": "in:uttar-pradesh:baghpat",
    "name": "Baghpat"
  },
  {
    "code": "in:uttar-pradesh:bahraich",
    "name": "Bahraich"
  },
  {
    "code": "in:uttar-pradesh:ballia",
    "name": "Ballia"
  },
  {
    "code": "in:uttar-pradesh:balrampur",
    "name": "Balrampur"
  },
  {
    "code": "in:uttar-pradesh:banda",
    "name": "Banda"
  },
  {
    "code": "in:uttar-pradesh:barabanki",
    "name": "Barabanki"
  },
  {
    "code": "in:uttar-pradesh:bareilly",
    "name": "Bareilly"
  },
  {
    "code": "in:uttar-pradesh:basti",
    "name": "Basti"
  },
  {
    "code": "in:uttar-pradesh:bhadohi",
    "name": "Bhadohi"
  },
  {
    "code": "in:uttar-pradesh:bijnor-district",
    "name": "Bijnor district"
  },
  {
    "code": "in:uttar-pradesh:budaun",
    "name": "Budaun"
  },
  {
    "code": "in:uttar-pradesh:bulandshahr-district",
    "name": "Bulandshahr district"
  },
  {
    "code": "in:uttar-pradesh:chandauli",
    "name": "Chandauli"
  },
  {
    "code": "in:uttar-pradesh:chitrakoot",
    "name": "Chitrakoot"
  },
  {
    "code": "in:uttar-pradesh:deoria",
    "name": "Deoria"
  },
  {
    "code": "in:uttar-pradesh:etah-district",
    "name": "Etah district"
  },
  {
    "code": "in:uttar-pradesh:etawah",
    "name": "Etawah"
  },
  {
    "code": "in:uttar-pradesh:faizabad",
    "name": "Faizabad"
  },
  {
    "code": "in:uttar-pradesh:farrukhabad",
    "name": "Farrukhabad"
  },
  {
    "code": "in:uttar-pradesh:fatehpur",
    "name": "Fatehpur"
  },
  {
    "code": "in:uttar-pradesh:firozabad",
    "name": "Firozabad"
  },
  {
    "code": "in:uttar-pradesh:gautam-buddha-nagar",
    "name": "Gautam Buddha Nagar"
  },
  {
    "code": "in:uttar-pradesh:ghaziabad",
    "name": "Ghaziabad"
  },
  {
    "code": "in:uttar-pradesh:ghazipur",
    "name": "Ghazipur"
  },
  {
    "code": "in:uttar-pradesh:gonda",
    "name": "Gonda"
  },
  {
    "code": "in:uttar-pradesh:gorakhpur",
    "name": "Gorakhpur"
  },
  {
    "code": "in:uttar-pradesh:hamirpur",
    "name": "Hamirpur"
  },
  {
    "code": "in:uttar-pradesh:hapur",
    "name": "Hapur"
  },
  {
    "code": "in:uttar-pradesh:hardoi",
    "name": "Hardoi"
  },
  {
    "code": "in:uttar-pradesh:hathras",
    "name": "Hathras"
  },
  {
    "code": "in:uttar-pradesh:jalaun",
    "name": "Jalaun"
  },
  {
    "code": "in:uttar-pradesh:jaunpur",
    "name": "Jaunpur"
  },
  {
    "code": "in:uttar-pradesh:jhansi",
    "name": "Jhansi"
  },
  {
    "code": "in:uttar-pradesh:kannauj",
    "name": "Kannauj"
  },
  {
    "code": "in:uttar-pradesh:kanpur-dehat",
    "name": "Kanpur Dehat"
  },
  {
    "code": "in:uttar-pradesh:kanpur-nagar",
    "name": "Kanpur Nagar"
  },
  {
    "code": "in:uttar-pradesh:kasganj",
    "name": "Kasganj"
  },
  {
    "code": "in:uttar-pradesh:kaushambi",
    "name": "Kaushambi"
  },
  {
    "code": "in:uttar-pradesh:kheri",
    "name": "Kheri"
  },
  {
    "code": "in:uttar-pradesh:kushi-nagar",
    "name": "Kushi Nagar"
  },
  {
    "code": "in:uttar-pradesh:lalitpur",
    "name": "Lalitpur"
  },
  {
    "code": "in:uttar-pradesh:lucknow",
    "name": "Lucknow"
  },
  {
    "code": "in:uttar-pradesh:maharajganj",
    "name": "Maharajganj"
  },
  {
    "code": "in:uttar-pradesh:mahoba",
    "name": "Mahoba"
  },
  {
    "code": "in:uttar-pradesh:mainpuri",
    "name": "Mainpuri"
  },
  {
    "code": "in:uttar-pradesh:mathura",
    "name": "Mathura"
  },
  {
    "code": "in:uttar-pradesh:mau",
    "name": "Mau"
  },
  {
    "code": "in:uttar-pradesh:meerut",
    "name": "Meerut"
  },
  {
    "code": "in:uttar-pradesh:mirzapur",
    "name": "Mirzapur"
  },
  {
    "code": "in:uttar-pradesh:moradabad",
    "name": "Moradabad"
  },
  {
    "code": "in:uttar-pradesh:muzaffarnagar",
    "name": "Muzaffarnagar"
  },
  {
    "code": "in:uttar-pradesh:pilibhit",
    "name": "Pilibhit"
  },
  {
    "code": "in:uttar-pradesh:pratapgarh",
    "name": "Pratapgarh"
  },
  {
    "code": "in:uttar-pradesh:rae-bareli",
    "name": "Rae Bareli"
  },
  {
    "code": "in:uttar-pradesh:rampur",
    "name": "Rampur"
  },
  {
    "code": "in:uttar-pradesh:saharanpur",
    "name": "Saharanpur"
  },
  {
    "code": "in:uttar-pradesh:sambhal",
    "name": "Sambhal"
  },
  {
    "code": "in:uttar-pradesh:sant-kabir-nagar-district",
    "name": "Sant Kabir Nagar district"
  },
  {
    "code": "in:uttar-pradesh:shahjahanpur",
    "name": "Shahjahanpur"
  },
  {
    "code": "in:uttar-pradesh:shamli",
    "name": "Shamli"
  },
  {
    "code": "in:uttar-pradesh:shravasti",
    "name": "Shravasti"
  },
  {
    "code": "in:uttar-pradesh:siddharth-nagar",
    "name": "Siddharth Nagar"
  },
  {
    "code": "in:uttar-pradesh:sitapur",
    "name": "Sitapur"
  },
  {
    "code": "in:uttar-pradesh:sonbhadra",
    "name": "Sonbhadra"
  },
  {
    "code": "in:uttar-pradesh:sultanpur",
    "name": "Sultanpur"
  },
  {
    "code": "in:uttar-pradesh:unnao",
    "name": "Unnao"
  },
  {
    "code": "in:uttar-pradesh:varanasi",
    "name": "Varanasi"
  }
]
